EESchema Schematic File Version 4
LIBS:Connector
LIBS:passives
LIBS:power
LIBS:ft232rq
LIBS:SDIOLevelShifter
LIBS:Micro_SD-Card_Slot
LIBS:LEDs_Shift_Register
LIBS:Blade_FP-cache
EELAYER 26 0
EELAYER END
$Descr A4 11693 8268
encoding utf-8
Sheet 1 1
Title ""
Date ""
Rev ""
Comp ""
Comment1 ""
Comment2 ""
Comment3 ""
Comment4 ""
$EndDescr
Text Label 1100 1450 0    50   ~ 0
UART_Tx_FT
Text Label 1100 1550 0    50   ~ 0
UART_Rx_FT
$Comp
L ft232rl:FT232RL U?
U 1 1 5C0E4A54
P 2650 2150
AR Path="/5BA90F8F/5C0E4A54" Ref="U?"  Part="1" 
AR Path="/5BA90F8F/5C0E31CA/5C0E4A54" Ref="U?"  Part="1" 
AR Path="/5C0E4A54" Ref="U1"  Part="1" 
F 0 "U1" H 3100 3050 60  0000 C CNN
F 1 "FT232RL" H 3100 1250 60  0000 C CNN
F 2 "Package_SO:SSOP-28_5.3x10.2mm_P0.65mm" H 2650 1500 60  0001 C CNN
F 3 "" H 2650 1500 60  0000 C CNN
F 4 "768-1007-1-ND" H 2650 2150 60  0001 C CNN "Supplier P/N"
F 5 "DigiKey" H 2650 2150 60  0001 C CNN "Supplier"
	1    2650 2150
	1    0    0    -1  
$EndComp
$Comp
L Connector:USB_B_Micro J?
U 1 1 5C0E4A5B
P 5150 1450
AR Path="/5BA90F8F/5C0E4A5B" Ref="J?"  Part="1" 
AR Path="/5BA90F8F/5C0E31CA/5C0E4A5B" Ref="J?"  Part="1" 
AR Path="/5C0E4A5B" Ref="J1"  Part="1" 
F 0 "J1" H 5000 1850 50  0000 R CNN
F 1 "USB_B_Micro" V 4850 1600 50  0000 R CNN
F 2 "Connectors:10118192-0001LF" H 5300 1400 50  0001 C CNN
F 3 "" H 5300 1400 50  0001 C CNN
F 4 "609-4613-1-ND" H 5150 1450 60  0001 C CNN "Supplier P/N"
F 5 "DigiKey" H 5150 1450 60  0001 C CNN "Supplier"
	1    5150 1450
	-1   0    0    -1  
$EndComp
Text Label 3650 1250 0    50   ~ 0
USB_5V
$Comp
L power:GND_LOGIC #PWR?
U 1 1 5C0E4A66
P 5150 1850
AR Path="/5B900E96/5C0E4A66" Ref="#PWR?"  Part="1" 
AR Path="/5BA90F8F/5C0E4A66" Ref="#PWR?"  Part="1" 
AR Path="/5BA90F8F/5C0E31CA/5C0E4A66" Ref="#PWR?"  Part="1" 
AR Path="/5C0E4A66" Ref="#PWR0101"  Part="1" 
F 0 "#PWR0101" H 5150 1600 50  0001 C CNN
F 1 "GND_LOGIC" H 5155 1677 50  0000 C CNN
F 2 "" H 5150 1850 50  0001 C CNN
F 3 "" H 5150 1850 50  0001 C CNN
	1    5150 1850
	-1   0    0    -1  
$EndComp
$Comp
L passives:R R?
U 1 1 5C0E4A6C
P 4450 1350
AR Path="/5BA90F8F/5C0E4A6C" Ref="R?"  Part="1" 
AR Path="/5BA90F8F/5C0E31CA/5C0E4A6C" Ref="R?"  Part="1" 
AR Path="/5C0E4A6C" Ref="R1"  Part="1" 
F 0 "R1" V 4500 1500 50  0000 C CNN
F 1 "4.7k" V 4450 1350 50  0000 C CNN
F 2 "Resistor_SMD:R_0603_1608Metric_Pad1.05x0.95mm_HandSolder" H 4450 1350 50  0001 C CNN
F 3 "" H 4450 1350 50  0001 C CNN
F 4 "311-4.7KGRCT-ND" V 4450 1350 50  0001 C CNN "Supplier P/N"
F 5 "DigiKey" V 4450 1350 50  0001 C CNN "Supplier "
	1    4450 1350
	0    1    1    0   
$EndComp
$Comp
L passives:R R?
U 1 1 5C0E4A73
P 4250 2050
AR Path="/5BA90F8F/5C0E4A73" Ref="R?"  Part="1" 
AR Path="/5BA90F8F/5C0E31CA/5C0E4A73" Ref="R?"  Part="1" 
AR Path="/5C0E4A73" Ref="R3"  Part="1" 
F 0 "R3" H 4318 2096 50  0000 L CNN
F 1 "10k" V 4250 2000 50  0000 L CNN
F 2 "Resistor_SMD:R_0603_1608Metric_Pad1.05x0.95mm_HandSolder" H 4250 2050 50  0001 C CNN
F 3 "" H 4250 2050 50  0001 C CNN
F 4 "RMCF0603JT10K0CT-ND" H 4250 2050 50  0001 C CNN "Supplier P/N"
F 5 "DigiKey" H 4250 2050 50  0001 C CNN "Supplier "
	1    4250 2050
	1    0    0    -1  
$EndComp
NoConn ~ 3500 2050
NoConn ~ 3500 2150
$Comp
L power:GND_LOGIC #PWR?
U 1 1 5C0E4A83
P 4250 2250
AR Path="/5B900E96/5C0E4A83" Ref="#PWR?"  Part="1" 
AR Path="/5BA90F8F/5C0E4A83" Ref="#PWR?"  Part="1" 
AR Path="/5BA90F8F/5C0E31CA/5C0E4A83" Ref="#PWR?"  Part="1" 
AR Path="/5C0E4A83" Ref="#PWR0102"  Part="1" 
F 0 "#PWR0102" H 4250 2000 50  0001 C CNN
F 1 "GND_LOGIC" H 4255 2077 50  0000 C CNN
F 2 "" H 4250 2250 50  0001 C CNN
F 3 "" H 4250 2250 50  0001 C CNN
	1    4250 2250
	-1   0    0    -1  
$EndComp
Text Label 1250 700  0    50   ~ 0
USB_5V
$Comp
L passives:C C?
U 1 1 5C0E4AA1
P 3700 2850
AR Path="/5BA90F8F/5C0E4AA1" Ref="C?"  Part="1" 
AR Path="/5BA90F8F/5C0E31CA/5C0E4AA1" Ref="C?"  Part="1" 
AR Path="/5C0E4AA1" Ref="C4"  Part="1" 
F 0 "C4" H 3803 2896 50  0000 L CNN
F 1 "0.1uF" H 3803 2805 50  0000 L CNN
F 2 "Capacitor_SMD:C_0603_1608Metric_Pad1.05x0.95mm_HandSolder" H 3700 2900 50  0001 C CNN
F 3 "" H 3700 2900 50  0001 C CNN
F 4 "1276-1000-1-ND" H 3700 2850 50  0001 C CNN "Supplier P/N"
F 5 "DigiKey" H 3700 2850 50  0001 C CNN "Supplier"
	1    3700 2850
	1    0    0    -1  
$EndComp
$Comp
L passives:INDUCTOR L?
U 1 1 5C0E4AAF
P 1800 700
AR Path="/5BA90F8F/5C0E4AAF" Ref="L?"  Part="1" 
AR Path="/5BA90F8F/5C0E31CA/5C0E4AAF" Ref="L?"  Part="1" 
AR Path="/5C0E4AAF" Ref="L1"  Part="1" 
F 0 "L1" H 1800 903 50  0000 C CNN
F 1 "INDUCTOR" H 1800 812 50  0000 C CNN
F 2 "Inductor_SMD:L_0402_1005Metric" H 1800 700 50  0001 C CNN
F 3 "" H 1800 700 50  0001 C CNN
F 4 "587-1837-1-ND" H 1800 700 50  0001 C CNN "Supplier P/N"
F 5 "DigiKey" H 1800 700 50  0001 C CNN "Supplier"
	1    1800 700 
	1    0    0    -1  
$EndComp
$Comp
L passives:C C?
U 1 1 5C0E4AB6
P 1600 900
AR Path="/5BA90F8F/5C0E4AB6" Ref="C?"  Part="1" 
AR Path="/5BA90F8F/5C0E31CA/5C0E4AB6" Ref="C?"  Part="1" 
AR Path="/5C0E4AB6" Ref="C1"  Part="1" 
F 0 "C1" H 1450 1000 50  0000 L CNN
F 1 "10nF" H 1400 800 50  0000 L CNN
F 2 "Capacitor_SMD:C_0603_1608Metric_Pad1.05x0.95mm_HandSolder" H 1600 950 50  0001 C CNN
F 3 "" H 1600 950 50  0001 C CNN
F 4 "1276-1921-1-ND" H 1600 900 50  0001 C CNN "Supplier P/N"
F 5 "DigiKey" H 1600 900 50  0001 C CNN "Supplier"
	1    1600 900 
	1    0    0    -1  
$EndComp
$Comp
L passives:C C?
U 1 1 5C0E4ABD
P 2000 900
AR Path="/5BA90F8F/5C0E4ABD" Ref="C?"  Part="1" 
AR Path="/5BA90F8F/5C0E31CA/5C0E4ABD" Ref="C?"  Part="1" 
AR Path="/5C0E4ABD" Ref="C2"  Part="1" 
F 0 "C2" H 1850 1000 50  0000 L CNN
F 1 "0.1uF" H 1750 800 50  0000 L CNN
F 2 "Capacitor_SMD:C_0603_1608Metric_Pad1.05x0.95mm_HandSolder" H 2000 950 50  0001 C CNN
F 3 "" H 2000 950 50  0001 C CNN
F 4 "1276-1000-1-ND" H 2000 900 50  0001 C CNN "Supplier P/N"
F 5 "DigiKey" H 2000 900 50  0001 C CNN "Supplier"
	1    2000 900 
	1    0    0    -1  
$EndComp
$Comp
L passives:C C?
U 1 1 5C0E4AC4
P 2200 900
AR Path="/5BA90F8F/5C0E4AC4" Ref="C?"  Part="1" 
AR Path="/5BA90F8F/5C0E31CA/5C0E4AC4" Ref="C?"  Part="1" 
AR Path="/5C0E4AC4" Ref="C3"  Part="1" 
F 0 "C3" H 2250 1000 50  0000 L CNN
F 1 "4.7uF" H 2250 800 50  0000 L CNN
F 2 "Capacitor_SMD:C_0603_1608Metric_Pad1.05x0.95mm_HandSolder" H 2200 950 50  0001 C CNN
F 3 "" H 2200 950 50  0001 C CNN
F 4 "1276-1044-1-ND" H 2200 900 50  0001 C CNN "Supplier P/N"
F 5 "DigiKey" H 2200 900 50  0001 C CNN "Supplier"
	1    2200 900 
	1    0    0    -1  
$EndComp
$Comp
L power:GND_LOGIC #PWR?
U 1 1 5C0E4ACB
P 1550 1150
AR Path="/5B900E96/5C0E4ACB" Ref="#PWR?"  Part="1" 
AR Path="/5BA90F8F/5C0E4ACB" Ref="#PWR?"  Part="1" 
AR Path="/5BA90F8F/5C0E31CA/5C0E4ACB" Ref="#PWR?"  Part="1" 
AR Path="/5C0E4ACB" Ref="#PWR0104"  Part="1" 
F 0 "#PWR0104" H 1550 900 50  0001 C CNN
F 1 "GND_LOGIC" H 1555 977 50  0000 C CNN
F 2 "" H 1550 1150 50  0001 C CNN
F 3 "" H 1550 1150 50  0001 C CNN
	1    1550 1150
	-1   0    0    -1  
$EndComp
Text Label 3500 2500 0    50   ~ 0
FT_3V3
Text Label 3050 1000 2    50   ~ 0
FT_3V3
NoConn ~ 1800 1750
NoConn ~ 1800 1850
NoConn ~ 1800 2050
NoConn ~ 1800 2150
NoConn ~ 1800 2250
NoConn ~ 1800 2450
NoConn ~ 1800 2550
NoConn ~ 1800 2650
NoConn ~ 5250 1850
NoConn ~ 4850 1650
Text Label 3900 1000 2    50   ~ 0
USB_UART_EN
Text Label 1300 2750 0    50   ~ 0
UART_Tx_LED
Text Label 1300 2850 0    50   ~ 0
UART_Rx_LED
Text Label 3650 1450 0    50   ~ 0
USB_P
Text Label 3650 1550 0    50   ~ 0
USB_N
$Comp
L passives:R R?
U 1 1 5C0E4B0D
P 3250 1000
AR Path="/5BA90F8F/5C0E4B0D" Ref="R?"  Part="1" 
AR Path="/5BA90F8F/5C0E31CA/5C0E4B0D" Ref="R?"  Part="1" 
AR Path="/5C0E4B0D" Ref="R2"  Part="1" 
F 0 "R2" V 3150 1000 50  0000 L CNN
F 1 "50" V 3250 950 50  0000 L CNN
F 2 "Resistor_SMD:R_0603_1608Metric_Pad1.05x0.95mm_HandSolder" H 3250 1000 50  0001 C CNN
F 3 "" H 3250 1000 50  0001 C CNN
F 4 "311-49.9HRCT-ND" H 3250 1000 50  0001 C CNN "Supplier P/N"
F 5 "DigiKey" H 3250 1000 50  0001 C CNN "Supplier"
	1    3250 1000
	0    -1   1    0   
$EndComp
Text Notes 5000 850  2    100  ~ 20
On FP Board
$Comp
L passives:LED D1
U 1 1 5C0E7F80
P 750 2150
F 0 "D1" V 714 2258 70  0000 L CNN
F 1 "LED R" V 900 2150 70  0000 L CNN
F 2 "Passives:LTST-S270KxKT" H 750 2150 60  0001 C CNN
F 3 "" H 750 2150 60  0000 C CNN
F 4 "160-1479-2-ND" V 750 2150 50  0001 C CNN "Supplier P/N"
F 5 "DigiKey" V 750 2150 50  0001 C CNN "Supplier"
	1    750  2150
	0    1    1    0   
$EndComp
$Comp
L passives:LED D2
U 1 1 5C0E9692
P 1100 2150
F 0 "D2" V 1064 2258 70  0000 L CNN
F 1 "LED G" V 1250 2150 70  0000 L CNN
F 2 "Passives:LTST-S270KxKT" H 1100 2150 60  0001 C CNN
F 3 "" H 1100 2150 60  0000 C CNN
F 4 "160-1478-2-ND" V 1100 2150 50  0001 C CNN "Supplier P/N"
F 5 "DigiKey" V 1100 2150 50  0001 C CNN "Supplier "
	1    1100 2150
	0    1    1    0   
$EndComp
Text Label 600  2000 0    50   ~ 0
FT_3V3
Text Notes 850  5350 0    50   ~ 0
Shift register for LEDs\n1727-4527-6-ND
Wire Wire Line
	3500 1450 4850 1450
Wire Wire Line
	4850 1550 3500 1550
Wire Wire Line
	3650 1250 4650 1250
Wire Wire Line
	3500 1750 4250 1750
Wire Wire Line
	4250 1350 4250 1750
Connection ~ 4250 1750
Wire Wire Line
	4650 1250 4650 1350
Connection ~ 4650 1250
Wire Wire Line
	3700 3000 3700 3350
Wire Wire Line
	2550 3250 2550 3350
Wire Wire Line
	2650 3250 2650 3350
Connection ~ 2650 3350
Wire Wire Line
	2750 3250 2750 3350
Connection ~ 2750 3350
Wire Wire Line
	2850 3250 2850 3350
Connection ~ 2850 3350
Wire Wire Line
	1800 1450 1100 1450
Wire Wire Line
	1800 1550 1100 1550
Wire Wire Line
	3500 2500 3700 2500
Wire Wire Line
	3700 2500 3700 2700
Connection ~ 3700 3350
Wire Wire Line
	3500 3350 3500 2800
Connection ~ 3500 3350
Wire Wire Line
	1550 1150 1550 1100
Wire Wire Line
	1550 1100 1600 1100
Wire Wire Line
	1600 1100 1600 1050
Wire Wire Line
	2000 1100 2000 1050
Connection ~ 1600 1100
Wire Wire Line
	2200 1100 2200 1050
Connection ~ 2000 1100
Wire Wire Line
	1600 750  1600 700 
Wire Wire Line
	1250 700  1600 700 
Wire Wire Line
	1950 700  2000 700 
Wire Wire Line
	2000 700  2000 750 
Wire Wire Line
	2200 700  2200 750 
Connection ~ 2000 700 
Wire Wire Line
	2550 700  2550 1050
Connection ~ 1600 700 
Connection ~ 2200 700 
Wire Wire Line
	2750 1050 2750 1000
Wire Wire Line
	2750 1000 3050 1000
Wire Notes Line
	550  3650 5450 3650
Wire Notes Line
	5450 550  550  550 
Wire Notes Line
	5450 3650 5450 550 
Wire Notes Line
	550  550  550  3650
Wire Wire Line
	1100 2750 1800 2750
Wire Wire Line
	750  2850 1800 2850
$Comp
L power:GND_LOGIC #PWR0108
U 1 1 5C0B279F
P 10100 3425
F 0 "#PWR0108" H 10100 3175 50  0001 C CNN
F 1 "GND_LOGIC" H 10105 3252 50  0000 C CNN
F 2 "" H 10100 3425 50  0001 C CNN
F 3 "" H 10100 3425 50  0001 C CNN
	1    10100 3425
	1    0    0    -1  
$EndComp
$Comp
L power:+3V3 #PWR0109
U 1 1 5C0B2B62
P 10100 850
F 0 "#PWR0109" H 10100 700 50  0001 C CNN
F 1 "+3V3" H 10115 1023 50  0000 C CNN
F 2 "" H 10100 850 50  0001 C CNN
F 3 "" H 10100 850 50  0001 C CNN
	1    10100 850 
	1    0    0    -1  
$EndComp
Text Label 8050 1900 0    60   ~ 0
SD_D0
Text Label 8050 2000 0    60   ~ 0
SD_D1
Text Label 8050 2100 0    60   ~ 0
SD_D2
Text Label 8050 2200 0    60   ~ 0
SD_D3
Text Label 8050 1800 0    60   ~ 0
SD_CMD
Wire Wire Line
	10100 3300 10100 3425
Connection ~ 10100 3300
Text Notes 5800 -700 0    60   ~ 0
some RJ45 ethernet jacks\n-all surface mount\n-all right angle\n-all 1 port\nwith LED:\nA116117CT-ND\nA121555CT-ND\nno LED:\nRJSSE-5080-ND\nWM5576-ND\nWM4595CT-ND\nWM3663CT-ND\n732-5952-1-ND
Wire Wire Line
	4250 1750 4250 1850
Wire Wire Line
	4650 1250 4850 1250
Wire Wire Line
	2550 3350 2650 3350
Wire Wire Line
	2650 3350 2750 3350
Wire Wire Line
	2750 3350 2850 3350
Wire Wire Line
	2850 3350 3500 3350
Wire Wire Line
	3700 3350 3700 3450
Wire Wire Line
	3500 3350 3700 3350
Wire Wire Line
	1600 1100 2000 1100
Wire Wire Line
	2000 1100 2200 1100
Wire Wire Line
	2000 700  2200 700 
Wire Wire Line
	1600 700  1650 700 
Wire Wire Line
	2200 700  2550 700 
Wire Wire Line
	10100 3300 10300 3300
$Comp
L LEDArray:WP914CK U3
U 1 1 5C76AB84
P 4500 5950
F 0 "U3" H 4550 6300 50  0000 C CNN
F 1 "WP914CK" V 4500 5950 50  0001 C CNN
F 2 "Passives:WP914CK" H 4550 6100 50  0001 C CNN
F 3 "" H 4550 6100 50  0001 C CNN
F 4 "754-1286-ND" H 4500 5950 50  0001 C CNN "Supplier P/N"
F 5 "DigiKey" H 4500 5950 50  0001 C CNN "Supplier"
	1    4500 5950
	1    0    0    -1  
$EndComp
$Comp
L LEDArray:WP914CK U4
U 1 1 5C76AD31
P 4500 6700
F 0 "U4" H 4400 6300 50  0000 C CNN
F 1 "WP914CK" V 4500 6700 50  0001 C CNN
F 2 "Passives:WP914CK" H 4550 6850 50  0001 C CNN
F 3 "" H 4550 6850 50  0001 C CNN
F 4 "754-1286-ND" H 4500 6700 50  0001 C CNN "Supplier P/N"
F 5 "DigiKey" H 4500 6700 50  0001 C CNN "Supplier"
	1    4500 6700
	1    0    0    -1  
$EndComp
$Comp
L power:GND_LOGIC #PWR?
U 1 1 5C7DDA62
P 1800 7300
AR Path="/5B900E96/5C7DDA62" Ref="#PWR?"  Part="1" 
AR Path="/5BA90F8F/5C7DDA62" Ref="#PWR?"  Part="1" 
AR Path="/5BA90F8F/5C0E31CA/5C7DDA62" Ref="#PWR?"  Part="1" 
AR Path="/5C7DDA62" Ref="#PWR0111"  Part="1" 
F 0 "#PWR0111" H 1800 7050 50  0001 C CNN
F 1 "GND_LOGIC" H 1805 7127 50  0000 C CNN
F 2 "" H 1800 7300 50  0001 C CNN
F 3 "" H 1800 7300 50  0001 C CNN
	1    1800 7300
	-1   0    0    -1  
$EndComp
$Comp
L passives:C C?
U 1 1 5C7DDCF7
P 1450 5550
AR Path="/5BA90F8F/5C7DDCF7" Ref="C?"  Part="1" 
AR Path="/5BA90F8F/5C0E31CA/5C7DDCF7" Ref="C?"  Part="1" 
AR Path="/5C7DDCF7" Ref="C6"  Part="1" 
F 0 "C6" H 1553 5596 50  0000 L CNN
F 1 "1uF" H 1553 5505 50  0000 L CNN
F 2 "Capacitor_SMD:C_0603_1608Metric_Pad1.05x0.95mm_HandSolder" H 1450 5600 50  0001 C CNN
F 3 "" H 1450 5600 50  0001 C CNN
F 4 "1276-1182-1-ND" H 1450 5550 50  0001 C CNN "Supplier P/N"
F 5 "DigiKey" H 1450 5550 50  0001 C CNN "Supplier"
	1    1450 5550
	1    0    0    -1  
$EndComp
$Comp
L power:GND_LOGIC #PWR?
U 1 1 5C7F04CA
P 1050 5700
AR Path="/5B900E96/5C7F04CA" Ref="#PWR?"  Part="1" 
AR Path="/5BA90F8F/5C7F04CA" Ref="#PWR?"  Part="1" 
AR Path="/5BA90F8F/5C0E31CA/5C7F04CA" Ref="#PWR?"  Part="1" 
AR Path="/5C7F04CA" Ref="#PWR0112"  Part="1" 
F 0 "#PWR0112" H 1050 5450 50  0001 C CNN
F 1 "GND_LOGIC" H 1055 5527 50  0000 C CNN
F 2 "" H 1050 5700 50  0001 C CNN
F 3 "" H 1050 5700 50  0001 C CNN
	1    1050 5700
	-1   0    0    -1  
$EndComp
Text Notes 2250 -700 0    60   ~ 0
some LEDs\n-all minimum quantity 1\n-all around 3-4 millicandela\nDigiKey P/N:\n350-3594-ND\n350-2389-1-ND\n350-2395-1-ND\n350-2390-1-ND\nalmost all the same, no outstanding qualities of any of them \n\n4 -High: 754-1286-ND
$Comp
L passives:C C?
U 1 1 5C80CC0F
P 9600 1000
AR Path="/5BA90F8F/5C80CC0F" Ref="C?"  Part="1" 
AR Path="/5BA90F8F/5C0E31CA/5C80CC0F" Ref="C?"  Part="1" 
AR Path="/5C80CC0F" Ref="C9"  Part="1" 
F 0 "C9" H 9703 1046 50  0000 L CNN
F 1 "1uF 10V" H 9703 955 50  0000 L CNN
F 2 "Capacitor_SMD:C_0603_1608Metric_Pad1.05x0.95mm_HandSolder" H 9600 1050 50  0001 C CNN
F 3 "" H 9600 1050 50  0001 C CNN
F 4 "1276-1182-1-ND" H 9600 1000 50  0001 C CNN "Supplier P/N"
F 5 "DigiKey" H 9600 1000 50  0001 C CNN "Supplier"
	1    9600 1000
	1    0    0    -1  
$EndComp
Text Label 4000 5750 0    50   ~ 0
LED_1
Text Label 4000 5900 0    50   ~ 0
LED_2
Text Label 4000 6200 0    50   ~ 0
LED_4
Text Label 4000 6500 0    50   ~ 0
LED_5
Text Label 4000 6650 0    50   ~ 0
LED_6
Text Label 4000 6800 0    50   ~ 0
LED_7
Text Label 4000 6950 0    50   ~ 0
LED_8
$Comp
L power:GND_LOGIC #PWR0113
U 1 1 5C7731C1
P 9100 2500
F 0 "#PWR0113" H 9100 2250 50  0001 C CNN
F 1 "GND_LOGIC" H 9105 2327 50  0000 C CNN
F 2 "" H 9100 2500 50  0001 C CNN
F 3 "" H 9100 2500 50  0001 C CNN
	1    9100 2500
	1    0    0    -1  
$EndComp
$Comp
L power:+3V3 #PWR0114
U 1 1 5C78FCD4
P 1800 5400
F 0 "#PWR0114" H 1800 5250 50  0001 C CNN
F 1 "+3V3" H 1815 5573 50  0000 C CNN
F 2 "" H 1800 5400 50  0001 C CNN
F 3 "" H 1800 5400 50  0001 C CNN
	1    1800 5400
	1    0    0    -1  
$EndComp
Wire Wire Line
	1800 5400 1800 5500
Connection ~ 1800 5400
$Comp
L passives:C C?
U 1 1 5C790290
P 1050 5550
AR Path="/5BA90F8F/5C790290" Ref="C?"  Part="1" 
AR Path="/5BA90F8F/5C0E31CA/5C790290" Ref="C?"  Part="1" 
AR Path="/5C790290" Ref="C5"  Part="1" 
F 0 "C5" H 1153 5596 50  0000 L CNN
F 1 "0.1uF" H 1153 5505 50  0000 L CNN
F 2 "Capacitor_SMD:C_0603_1608Metric_Pad1.05x0.95mm_HandSolder" H 1050 5600 50  0001 C CNN
F 3 "" H 1050 5600 50  0001 C CNN
F 4 "1276-1000-1-ND" H 1050 5550 50  0001 C CNN "Supplier P/N"
F 5 "DigiKey" H 1050 5550 50  0001 C CNN "Supplier"
	1    1050 5550
	1    0    0    -1  
$EndComp
Connection ~ 1450 5400
Wire Wire Line
	1450 5400 1800 5400
Wire Wire Line
	1450 5700 1050 5700
Wire Wire Line
	1050 5400 1450 5400
Connection ~ 1050 5700
Wire Wire Line
	3700 6600 3800 6600
Wire Wire Line
	3800 6600 3800 6800
Text Label 4000 6050 0    50   ~ 0
LED_3
$Comp
L passives:R R6
U 1 1 5C83A994
P 900 6300
F 0 "R6" V 1000 6250 50  0000 C CNN
F 1 "1k" V 900 6300 50  0000 C CNN
F 2 "Resistor_SMD:R_0603_1608Metric_Pad1.05x0.95mm_HandSolder" H 900 6300 50  0001 C CNN
F 3 "" H 900 6300 50  0001 C CNN
F 4 "RMCF0603JJ1K00CT-ND" V 900 6300 50  0001 C CNN "Supplier P/N"
F 5 "DigiKey" V 900 6300 50  0001 C CNN "Supplier"
	1    900  6300
	0    1    1    0   
$EndComp
$Comp
L power:+3V3 #PWR0116
U 1 1 5C83AB8F
P 600 6300
F 0 "#PWR0116" H 600 6150 50  0001 C CNN
F 1 "+3V3" H 615 6473 50  0000 C CNN
F 2 "" H 600 6300 50  0001 C CNN
F 3 "" H 600 6300 50  0001 C CNN
	1    600  6300
	1    0    0    -1  
$EndComp
Text Label 1200 6500 2    50   ~ 0
LED_RST
Wire Wire Line
	1200 6500 850  6500
Text Label 1200 6100 2    50   ~ 0
LED_SCL
Text Label 1200 6200 2    50   ~ 0
LED_SDA
Wire Wire Line
	1200 6200 850  6200
Wire Wire Line
	1200 6100 850  6100
Wire Wire Line
	600  6300 700  6300
Wire Wire Line
	1100 6300 1200 6300
Wire Wire Line
	3700 6400 4000 6400
Wire Wire Line
	4000 6400 4000 6500
Wire Wire Line
	4000 6500 4300 6500
Wire Wire Line
	3700 6500 3900 6500
Wire Wire Line
	3900 6500 3900 6650
Wire Wire Line
	3900 6650 4300 6650
Wire Wire Line
	3800 6800 4300 6800
Wire Wire Line
	3700 6950 4300 6950
Wire Wire Line
	4000 6200 4300 6200
Wire Wire Line
	3700 6300 4000 6300
Wire Wire Line
	3900 6050 4300 6050
Wire Wire Line
	3800 5900 4300 5900
Wire Wire Line
	3700 6100 3800 6100
Wire Wire Line
	3900 6200 3900 6050
Wire Wire Line
	3700 6200 3900 6200
Wire Wire Line
	4000 6300 4000 6200
Wire Wire Line
	3800 6100 3800 5900
$Comp
L power:GND_LOGIC #PWR0118
U 1 1 5CA0701F
P 9600 1150
F 0 "#PWR0118" H 9600 900 50  0001 C CNN
F 1 "GND_LOGIC" H 9605 977 50  0000 C CNN
F 2 "" H 9600 1150 50  0001 C CNN
F 3 "" H 9600 1150 50  0001 C CNN
	1    9600 1150
	1    0    0    -1  
$EndComp
$Comp
L Micro_SD-Card_Slot:DM38T-DSF-PEJS J4
U 1 1 5C0BA4BE
P 10100 2200
F 0 "J4" H 10600 3050 60  0000 C CNN
F 1 "DM38T-DSF-PEJS" V 10100 2200 60  0000 C CNN
F 2 "Connectors:DM3BT-DSF-PEJS" H 10975 3000 60  0001 C CNN
F 3 "" H 10975 3000 60  0001 C CNN
F 4 "HR1942CT-ND" H 10100 2200 60  0001 C CNN "Supplier P/N"
F 5 "DigiKey" H 10100 2200 60  0001 C CNN "Supplier"
	1    10100 2200
	1    0    0    -1  
$EndComp
Wire Wire Line
	10100 850  10100 1100
Wire Wire Line
	9600 850  10100 850 
Connection ~ 10100 850 
Wire Wire Line
	3700 5750 4300 5750
$Comp
L passives:R R12
U 1 1 5C74B985
P 7950 1700
F 0 "R12" V 7850 1750 50  0000 C CNN
F 1 "22" V 7950 1700 50  0000 C CNN
F 2 "Resistor_SMD:R_0603_1608Metric_Pad1.05x0.95mm_HandSolder" H 7950 1700 50  0001 C CNN
F 3 "" H 7950 1700 50  0001 C CNN
F 4 "A130081CT-ND" V 7950 1700 50  0001 C CNN "Supplier P/N"
F 5 "DigiKey" V 7950 1700 50  0001 C CNN "Supplier"
	1    7950 1700
	0    1    1    0   
$EndComp
Text Notes 2800 9450 0    50   ~ 0
LED Array Notes\nTypical Voltage =  2 V  pg. 2\n(pg. 2 says 2 V corresponds to 10 mA, \nchart on pg. 3 says 8 mA)\nMax Voltage = 2.4 V pg. 2\nMax Current = 25 mA pg. 2\nVI plot pg. 3\nAll at T =25 degrees C
$Comp
L Connector:Conn_02x06_Male J2
U 1 1 5CBC188E
P 9550 4300
F 0 "J2" H 9525 4765 50  0000 C CNN
F 1 "Conn_02x06_Male" H 9525 4674 50  0000 C CNN
F 2 "Connectors:PinHeader_2x06_P2.54mm_Vertical" H 9500 4350 50  0001 C CNN
F 3 "" H 9500 4350 50  0001 C CNN
F 4 "SAM1028-06-ND" H 9550 4300 50  0001 C CNN "Supplier P/N "
F 5 "DigiKey" H 9550 4300 50  0001 C CNN "Supplier"
	1    9550 4300
	1    0    0    -1  
$EndComp
$Comp
L Connector:Conn_02x06_Male J3
U 1 1 5CBC1A4E
P 9550 5650
F 0 "J3" H 9525 6115 50  0000 C CNN
F 1 "Conn_02x06_Male" H 9525 6024 50  0000 C CNN
F 2 "Connectors:PinHeader_2x06_P2.54mm_Vertical" H 9500 5700 50  0001 C CNN
F 3 "" H 9500 5700 50  0001 C CNN
F 4 "SAM1028-06-ND" H 9550 5650 50  0001 C CNN "Supplier P/N"
F 5 "DigiKey" H 9550 5650 50  0001 C CNN "Supplier"
	1    9550 5650
	1    0    0    -1  
$EndComp
Text Label 9900 4150 0    50   ~ 0
SD_CLK
Text Label 9900 4250 0    50   ~ 0
SD_D0
Text Label 9900 4350 0    50   ~ 0
SD_D2
Text Label 9900 4450 0    50   ~ 0
SD_CMD
Text Label 9200 5400 2    50   ~ 0
LED_SCL
Text Label 9950 5400 0    50   ~ 0
LED_SDA
Text Label 9950 5600 0    50   ~ 0
USB_UART_EN
Text Label 9150 4250 2    50   ~ 0
SD_D1
Text Label 9150 4350 2    50   ~ 0
SD_D3
Text Label 9200 5500 2    50   ~ 0
LED_RST
Text Label 9950 5800 0    50   ~ 0
BUTTON
Text Label 9200 5600 2    50   ~ 0
UART_Tx_CONN
Text Label 9200 5700 2    50   ~ 0
UART_Rx_CONN
Wire Wire Line
	9750 4050 9850 4050
Wire Wire Line
	9850 4650 9200 4650
Wire Wire Line
	9200 4650 9200 4550
Wire Wire Line
	9200 4050 9300 4050
Wire Wire Line
	9750 4450 10200 4450
Wire Wire Line
	9750 4350 10200 4350
Wire Wire Line
	9750 4250 10200 4250
Wire Wire Line
	9300 4250 8900 4250
Wire Wire Line
	9750 4150 10200 4150
Wire Wire Line
	9300 4350 8900 4350
Wire Wire Line
	9300 4450 9200 4450
Connection ~ 9200 4450
Wire Wire Line
	9200 4450 9200 4150
Wire Wire Line
	9300 4550 9200 4550
Connection ~ 9200 4550
Wire Wire Line
	9200 4550 9200 4450
$Comp
L power:GND_LOGIC #PWR0120
U 1 1 5CC8AF5E
P 9200 4650
F 0 "#PWR0120" H 9200 4400 50  0001 C CNN
F 1 "GND_LOGIC" H 9205 4477 50  0000 C CNN
F 2 "" H 9200 4650 50  0001 C CNN
F 3 "" H 9200 4650 50  0001 C CNN
	1    9200 4650
	1    0    0    -1  
$EndComp
Connection ~ 9200 4650
$Comp
L power:GND_LOGIC #PWR0121
U 1 1 5CC8B089
P 9850 6000
F 0 "#PWR0121" H 9850 5750 50  0001 C CNN
F 1 "GND_LOGIC" H 9855 5827 50  0000 C CNN
F 2 "" H 9850 6000 50  0001 C CNN
F 3 "" H 9850 6000 50  0001 C CNN
	1    9850 6000
	1    0    0    -1  
$EndComp
Wire Wire Line
	9200 4150 9300 4150
Connection ~ 9200 4150
Wire Wire Line
	9200 4150 9200 4050
Wire Wire Line
	9850 5500 9850 5700
Wire Wire Line
	9750 5700 9850 5700
Connection ~ 9850 5700
Wire Wire Line
	9850 5700 9850 5900
Wire Wire Line
	9750 5900 9850 5900
Connection ~ 9850 5900
Wire Wire Line
	9850 5900 9850 6000
Wire Wire Line
	9750 5400 10300 5400
Wire Wire Line
	9750 5600 10500 5600
Wire Wire Line
	8850 5500 9300 5500
Wire Wire Line
	9300 5800 9200 5800
Wire Wire Line
	9850 4050 9850 4650
$Comp
L power:+3V3 #PWR0122
U 1 1 5CD3D239
P 8850 5900
F 0 "#PWR0122" H 8850 5750 50  0001 C CNN
F 1 "+3V3" H 8865 6073 50  0000 C CNN
F 2 "" H 8850 5900 50  0001 C CNN
F 3 "" H 8850 5900 50  0001 C CNN
	1    8850 5900
	1    0    0    -1  
$EndComp
NoConn ~ 9100 2400
Text Label 7750 1700 2    60   ~ 0
SD_CLK
Wire Wire Line
	7750 1700 7400 1700
$Comp
L Button:Button U5
U 1 1 5C806FC4
P 10650 5700
F 0 "U5" H 10600 5450 50  0000 L CNN
F 1 "Button" H 10550 5550 50  0000 L CNN
F 2 "Button:EG2610CT-ND" H 10650 5700 50  0001 C CNN
F 3 "" H 10650 5700 50  0001 C CNN
F 4 "EG2610CT-ND" H 10650 5700 50  0001 C CNN "Supplier P/N"
F 5 "DigiKey" H 10650 5700 50  0001 C CNN "Supplier"
	1    10650 5700
	1    0    0    -1  
$EndComp
Wire Wire Line
	9750 5800 10350 5800
$Comp
L passives:R R15
U 1 1 5C81992E
P 11000 5600
F 0 "R15" H 10900 5650 50  0000 C CNN
F 1 "100" V 11000 5600 50  0000 C CNN
F 2 "Resistor_SMD:R_0603_1608Metric_Pad1.05x0.95mm_HandSolder" H 11000 5600 50  0001 C CNN
F 3 "" H 11000 5600 50  0001 C CNN
F 4 "RMCF0603FT100RCT-ND" H 11000 5600 50  0001 C CNN "Supplier P/N"
F 5 "DigiKey" H 11000 5600 50  0001 C CNN "Supplier"
	1    11000 5600
	-1   0    0    1   
$EndComp
Wire Wire Line
	10700 5800 11000 5800
$Comp
L power:+3V3 #PWR0123
U 1 1 5C826242
P 11000 5400
F 0 "#PWR0123" H 11000 5250 50  0001 C CNN
F 1 "+3V3" H 11015 5573 50  0000 C CNN
F 2 "" H 11000 5400 50  0001 C CNN
F 3 "" H 11000 5400 50  0001 C CNN
	1    11000 5400
	1    0    0    -1  
$EndComp
$Comp
L passives:R R14
U 1 1 5C826780
P 10350 6000
F 0 "R14" V 10250 6050 50  0000 C CNN
F 1 "4k" V 10350 6000 50  0000 C CNN
F 2 "Resistor_SMD:R_0603_1608Metric_Pad1.05x0.95mm_HandSolder" H 10350 6000 50  0001 C CNN
F 3 "" H 10350 6000 50  0001 C CNN
F 4 "RMCF0603FT4K02CT-ND" V 10350 6000 50  0001 C CNN "Supplier P/N"
F 5 "DigiKey" V 10350 6000 50  0001 C CNN "Supplier"
	1    10350 6000
	-1   0    0    1   
$EndComp
$Comp
L power:GND_LOGIC #PWR0124
U 1 1 5C826A33
P 10350 6200
F 0 "#PWR0124" H 10350 5950 50  0001 C CNN
F 1 "GND_LOGIC" H 10355 6027 50  0000 C CNN
F 2 "" H 10350 6200 50  0001 C CNN
F 3 "" H 10350 6200 50  0001 C CNN
	1    10350 6200
	1    0    0    -1  
$EndComp
Text Notes 2250 5800 0    50   ~ 0
Want approx 4 mA, corresponds to approx 1.9 V pg. 3\n3.2 - 1.9 = 1.3\n1.3 V/4 mA = 325\nUse: 330 Ohms
Text Notes 1850 5000 0    50   ~ 0
LED Shift Register Max I_cc = 50 mA pg. 4\nHere, it sources 8 x 4 mA = 32 mA
Text Notes 9500 250  0    50   ~ 0
Current Rating: 0.5 A pg. 2\nVoltage Rating: 125 VAC pg. 2
Text Notes 6750 250  0    50   ~ 0
Max I_cc: +- 100 mA pg. 5\nTyp I_ccBx for V_cc = 3.3 V: 24 uA pg. 7\nTyp I_ccA for V_cc = 3.3 V: 12 uA pg.7
$Comp
L power:+3V3 #PWR0126
U 1 1 5C84BD15
P 10650 4550
F 0 "#PWR0126" H 10650 4400 50  0001 C CNN
F 1 "+3V3" H 10665 4723 50  0000 C CNN
F 2 "" H 10650 4550 50  0001 C CNN
F 3 "" H 10650 4550 50  0001 C CNN
	1    10650 4550
	1    0    0    -1  
$EndComp
Wire Wire Line
	9750 4550 10650 4550
Wire Wire Line
	10350 5800 10600 5800
Connection ~ 10350 5800
Wire Wire Line
	9750 5500 9850 5500
Wire Wire Line
	750  2850 750  2750
Wire Wire Line
	3900 1000 3450 1000
Wire Wire Line
	600  2000 750  2000
Connection ~ 750  2000
Wire Wire Line
	750  2000 1100 2000
$Comp
L passives:R R?
U 1 1 5C82C888
P 750 2550
AR Path="/5BA90F8F/5C82C888" Ref="R?"  Part="1" 
AR Path="/5BA90F8F/5C0E31CA/5C82C888" Ref="R?"  Part="1" 
AR Path="/5C82C888" Ref="R4"  Part="1" 
F 0 "R4" H 818 2596 50  0000 L CNN
F 1 "100" V 750 2500 50  0000 L CNN
F 2 "Resistor_SMD:R_0603_1608Metric_Pad1.05x0.95mm_HandSolder" H 750 2550 50  0001 C CNN
F 3 "" H 750 2550 50  0001 C CNN
F 4 "RMCF0603FT100RCT-ND" H 750 2550 50  0001 C CNN "Supplier P/N"
F 5 "DigiKey" H 750 2550 50  0001 C CNN "Supplier"
	1    750  2550
	-1   0    0    1   
$EndComp
$Comp
L passives:R R?
U 1 1 5C84087D
P 1100 2550
AR Path="/5BA90F8F/5C84087D" Ref="R?"  Part="1" 
AR Path="/5BA90F8F/5C0E31CA/5C84087D" Ref="R?"  Part="1" 
AR Path="/5C84087D" Ref="R5"  Part="1" 
F 0 "R5" H 1168 2596 50  0000 L CNN
F 1 "100" V 1100 2500 50  0000 L CNN
F 2 "Resistor_SMD:R_0603_1608Metric_Pad1.05x0.95mm_HandSolder" H 1100 2550 50  0001 C CNN
F 3 "" H 1100 2550 50  0001 C CNN
F 4 "RMCF0603FT100RCT-ND" H 1100 2550 50  0001 C CNN "Supplier P/N"
F 5 "DigiKey" H 1100 2550 50  0001 C CNN "Supplier"
	1    1100 2550
	-1   0    0    1   
$EndComp
Text Notes 2300 250  0    50   ~ 0
I_normal-operation = 15 mA pgs. 15, 18\nI_abs-max = 24 mA pg. 17\nI_max-src = 100 mA pg. 23
Text Notes 9450 700  0    50   ~ 0
no current?
Text Label 5600 4400 2    50   ~ 0
UART_Tx_FT
Text Label 6550 5950 0    50   ~ 0
UART_Rx_FT
Wire Wire Line
	8600 5600 9300 5600
Wire Wire Line
	8600 5700 9300 5700
Wire Wire Line
	5650 5950 5000 5950
Wire Wire Line
	6450 4400 7150 4400
Wire Wire Line
	6450 5950 7150 5950
$Comp
L power:GND_LOGIC #PWR0127
U 1 1 5C95CA6E
P 6050 4850
F 0 "#PWR0127" H 6050 4600 50  0001 C CNN
F 1 "GND_LOGIC" H 6055 4677 50  0000 C CNN
F 2 "" H 6050 4850 50  0001 C CNN
F 3 "" H 6050 4850 50  0001 C CNN
	1    6050 4850
	1    0    0    -1  
$EndComp
$Comp
L power:GND_LOGIC #PWR0128
U 1 1 5C95CACF
P 6050 6400
F 0 "#PWR0128" H 6050 6150 50  0001 C CNN
F 1 "GND_LOGIC" H 6055 6227 50  0000 C CNN
F 2 "" H 6050 6400 50  0001 C CNN
F 3 "" H 6050 6400 50  0001 C CNN
	1    6050 6400
	1    0    0    -1  
$EndComp
$Comp
L power:+3V3 #PWR0129
U 1 1 5C97E547
P 6150 3900
F 0 "#PWR0129" H 6150 3750 50  0001 C CNN
F 1 "+3V3" H 6165 4073 50  0000 C CNN
F 2 "" H 6150 3900 50  0001 C CNN
F 3 "" H 6150 3900 50  0001 C CNN
	1    6150 3900
	1    0    0    -1  
$EndComp
$Comp
L power:+3V3 #PWR0130
U 1 1 5C97E5A8
P 5950 5300
F 0 "#PWR0130" H 5950 5150 50  0001 C CNN
F 1 "+3V3" H 5965 5473 50  0000 C CNN
F 2 "" H 5950 5300 50  0001 C CNN
F 3 "" H 5950 5300 50  0001 C CNN
	1    5950 5300
	1    0    0    -1  
$EndComp
Text Label 5900 3750 2    50   ~ 0
FT_3V3
Text Label 6200 5450 0    50   ~ 0
FT_3V3
Wire Wire Line
	6150 5450 6500 5450
$Comp
L ft232q_LevelShifter:74AUP1T34_SOT353-1 U6
U 1 1 5C916296
P 6050 4400
F 0 "U6" H 6000 4750 50  0000 L CNN
F 1 "74AUP1T34_SOT353-1" H 6300 4200 50  0000 L CNN
F 2 "ft232q_LevelShifter:SOT-353_SC-70-5_Handsoldering" H 6050 4300 50  0001 C CNN
F 3 "" H 6050 4300 50  0001 C CNN
F 4 "1727-6030-2-ND" H 6050 4400 50  0001 C CNN "Supplier P/N"
F 5 "DigiKey" H 6050 4400 50  0001 C CNN "Supplier"
	1    6050 4400
	1    0    0    -1  
$EndComp
$Comp
L ft232q_LevelShifter:74AUP1T34_SOT353-1 U7
U 1 1 5C916702
P 6050 5950
F 0 "U7" H 6000 6300 50  0000 L CNN
F 1 "74AUP1T34_SOT353-1" H 6300 5750 50  0000 L CNN
F 2 "ft232q_LevelShifter:SOT-353_SC-70-5_Handsoldering" H 6050 5850 50  0001 C CNN
F 3 "" H 6050 5850 50  0001 C CNN
F 4 "1727-6030-2-ND" H 6050 5950 50  0001 C CNN "Supplier P/N"
F 5 "DigiKey" H 6050 5950 50  0001 C CNN "Supplier"
	1    6050 5950
	1    0    0    -1  
$EndComp
$Comp
L passives:742C163331JP R7
U 1 1 5C9456D5
P 3450 6350
F 0 "R7" H 3450 6800 50  0000 C CNN
F 1 "742C163331JP" V 3450 6350 50  0000 C CNN
F 2 "Passives:Resistor_Array_8" H 2750 6900 50  0001 C CNN
F 3 "" H 2750 6900 50  0001 C CNN
F 4 "742C163331JPCT-ND" H 3450 6350 50  0001 C CNN "Supplier P/N"
F 5 "DigiKey" H 3450 6350 50  0001 C CNN "Supplier"
	1    3450 6350
	1    0    0    -1  
$EndComp
Wire Wire Line
	3700 5750 3700 6000
Wire Wire Line
	3700 6700 3700 6950
Wire Wire Line
	4700 5750 4700 5900
Connection ~ 4700 5900
Wire Wire Line
	4700 5900 4700 6050
Connection ~ 4700 6050
Wire Wire Line
	4700 6050 4700 6200
Connection ~ 4700 6200
Wire Wire Line
	4700 6200 4700 6500
Connection ~ 4700 6500
Wire Wire Line
	4700 6500 4700 6650
Connection ~ 4700 6650
Wire Wire Line
	4700 6650 4700 6800
Connection ~ 4700 6800
Wire Wire Line
	4700 6800 4700 6950
$Comp
L power:GND_LOGIC #PWR?
U 1 1 5C9760FB
P 4700 6950
AR Path="/5B900E96/5C9760FB" Ref="#PWR?"  Part="1" 
AR Path="/5BA90F8F/5C9760FB" Ref="#PWR?"  Part="1" 
AR Path="/5BA90F8F/5C0E31CA/5C9760FB" Ref="#PWR?"  Part="1" 
AR Path="/5C9760FB" Ref="#PWR0105"  Part="1" 
F 0 "#PWR0105" H 4700 6700 50  0001 C CNN
F 1 "GND_LOGIC" H 4705 6777 50  0000 C CNN
F 2 "" H 4700 6950 50  0001 C CNN
F 3 "" H 4700 6950 50  0001 C CNN
	1    4700 6950
	-1   0    0    -1  
$EndComp
Connection ~ 4700 6950
$Comp
L LEDs_Shift_Register:74HC164 U2
U 1 1 5C0C05BB
P 1800 6400
F 0 "U2" H 1550 7050 60  0000 C CNN
F 1 "74HC164" V 1800 6400 60  0000 C CNN
F 2 "Package_SO:74HC" H 2025 7175 60  0001 C CNN
F 3 "" H 2025 7175 60  0001 C CNN
F 4 "296-14020-1-ND" H 1800 6400 60  0001 C CNN "Supplier P/N"
F 5 "DigiKey" H 1800 6400 60  0001 C CNN "Supplier"
	1    1800 6400
	1    0    0    -1  
$EndComp
Text Notes 3350 6850 0    50   ~ 0
330R
$Comp
L passives:C C11
U 1 1 5C9B6D8A
P 5600 5450
F 0 "C11" H 5703 5496 50  0000 L CNN
F 1 "1uF" H 5703 5405 50  0000 L CNN
F 2 "Capacitor_SMD:C_0603_1608Metric_Pad1.05x0.95mm_HandSolder" H 5600 5500 50  0001 C CNN
F 3 "" H 5600 5500 50  0001 C CNN
F 4 "1276-1182-1-ND" H 5600 5450 50  0001 C CNN "Supplier P/N"
F 5 "DigiKey" H 5600 5450 50  0001 C CNN "Supplier"
	1    5600 5450
	1    0    0    -1  
$EndComp
$Comp
L passives:C C10
U 1 1 5C9B6E04
P 5600 3900
F 0 "C10" H 5703 3946 50  0000 L CNN
F 1 "1uF" H 5703 3855 50  0000 L CNN
F 2 "Capacitor_SMD:C_0603_1608Metric_Pad1.05x0.95mm_HandSolder" H 5600 3950 50  0001 C CNN
F 3 "" H 5600 3950 50  0001 C CNN
F 4 "1276-1182-1-ND" H 5600 3900 50  0001 C CNN "Supplier P/N"
F 5 "DigiKey" H 5600 3900 50  0001 C CNN "Supplier"
	1    5600 3900
	1    0    0    -1  
$EndComp
$Comp
L power:GND_LOGIC #PWR0115
U 1 1 5C9B6FD2
P 5600 4050
F 0 "#PWR0115" H 5600 3800 50  0001 C CNN
F 1 "GND_LOGIC" H 5605 3877 50  0000 C CNN
F 2 "" H 5600 4050 50  0001 C CNN
F 3 "" H 5600 4050 50  0001 C CNN
	1    5600 4050
	1    0    0    -1  
$EndComp
Wire Wire Line
	5600 3750 5950 3750
Wire Wire Line
	5950 3750 5950 3900
$Comp
L power:GND_LOGIC #PWR0131
U 1 1 5C9C7381
P 5600 5600
F 0 "#PWR0131" H 5600 5350 50  0001 C CNN
F 1 "GND_LOGIC" H 5605 5427 50  0000 C CNN
F 2 "" H 5600 5600 50  0001 C CNN
F 3 "" H 5600 5600 50  0001 C CNN
	1    5600 5600
	1    0    0    -1  
$EndComp
$Comp
L power:GND_LOGIC #PWR?
U 1 1 5C967AF8
P 3700 3450
AR Path="/5B900E96/5C967AF8" Ref="#PWR?"  Part="1" 
AR Path="/5BA90F8F/5C967AF8" Ref="#PWR?"  Part="1" 
AR Path="/5BA90F8F/5C0E31CA/5C967AF8" Ref="#PWR?"  Part="1" 
AR Path="/5C967AF8" Ref="#PWR0103"  Part="1" 
F 0 "#PWR0103" H 3700 3200 50  0001 C CNN
F 1 "GND_LOGIC" H 3705 3277 50  0000 C CNN
F 2 "" H 3700 3450 50  0001 C CNN
F 3 "" H 3700 3450 50  0001 C CNN
	1    3700 3450
	-1   0    0    -1  
$EndComp
Wire Wire Line
	5600 5300 5950 5300
Wire Wire Line
	5950 5300 5950 5450
Connection ~ 5950 5300
Text Notes 2750 7050 0    50   ~ 0
pins not numbered on R array datasheet
Text Label 2450 6400 0    50   ~ 0
LED1_R
Text Label 2450 6500 0    50   ~ 0
LED2_R
Text Label 2450 6600 0    50   ~ 0
LED3_R
Text Label 2450 6700 0    50   ~ 0
LED4_R
Text Label 3150 6000 2    50   ~ 0
LED1_R
Text Label 3150 6100 2    50   ~ 0
LED2_R
Text Label 3150 6200 2    50   ~ 0
LED3_R
Text Label 3150 6300 2    50   ~ 0
LED4_R
Wire Wire Line
	2400 6700 2750 6700
Wire Wire Line
	3200 6000 2850 6000
Wire Wire Line
	2400 6600 2750 6600
Wire Wire Line
	3200 6100 2850 6100
Wire Wire Line
	2400 6500 2750 6500
Wire Wire Line
	3200 6200 2850 6200
Wire Wire Line
	3200 6300 2850 6300
Wire Wire Line
	2400 6400 2750 6400
Text Label 2450 6300 0    50   ~ 0
LED5_R
Text Label 2450 6200 0    50   ~ 0
LED6_R
Text Label 2450 6100 0    50   ~ 0
LED7_R
Text Label 2450 6000 0    50   ~ 0
LED8_R
Text Label 3150 6400 2    50   ~ 0
LED5_R
Text Label 3150 6500 2    50   ~ 0
LED6_R
Text Label 3150 6600 2    50   ~ 0
LED7_R
Text Label 3150 6700 2    50   ~ 0
LED8_R
Wire Wire Line
	2400 6000 2750 6000
Wire Wire Line
	3200 6400 2850 6400
Wire Wire Line
	2400 6100 2750 6100
Wire Wire Line
	3200 6500 2850 6500
Wire Wire Line
	2400 6200 2750 6200
Wire Wire Line
	3200 6600 2850 6600
Wire Wire Line
	3200 6700 2850 6700
Wire Wire Line
	2400 6300 2750 6300
Wire Wire Line
	9800 3300 9900 3300
Connection ~ 9900 3300
Wire Wire Line
	9900 3300 10000 3300
Connection ~ 10000 3300
Wire Wire Line
	10000 3300 10100 3300
Text Notes 8750 5250 0    50   ~ 0
RST orig 2\nSCL org 4
Text Label 6550 4400 0    50   ~ 0
UART_Tx_CONN
Text Label 5600 5950 2    50   ~ 0
UART_Rx_CONN
Wire Wire Line
	5000 4400 5650 4400
Wire Wire Line
	9200 5800 9200 5900
Connection ~ 9200 5900
Wire Wire Line
	9200 5900 9300 5900
Wire Wire Line
	8850 5900 9200 5900
Wire Wire Line
	8850 5400 9300 5400
Wire Wire Line
	8000 2200 8950 2200
Text Notes 6450 2100 0    50   ~ 0
Level shitter removed\nsince it didn't work
Text Notes 650  3600 0    50   ~ 0
Rev B: \nChange from FT232RQ to FT232RL (SO-28)\nUSB_UART_EN to FT_3V3 through R2 (not nDTR)
Text Notes 7950 6200 0    50   ~ 0
Rev B\nChanged connector P/N for long tails
Text Notes 7150 7100 0    79   ~ 0
APOLLO Blade Front Panel\n\nBoston University EDF\nhttp://edf.bu.edu
Text Notes 10650 7650 0    50   ~ 0
B
Text Notes 8200 7650 0    50   ~ 0
2019-05-31
NoConn ~ 1800 1950
Wire Wire Line
	8150 1700 8450 1700
Wire Wire Line
	8000 1800 8550 1800
Wire Wire Line
	8000 1900 8650 1900
Wire Wire Line
	8000 2000 8750 2000
Wire Wire Line
	8000 2100 8850 2100
$Comp
L Connector:TestPoint TP1
U 1 1 5CFD5B52
P 8450 1500
F 0 "TP1" V 8450 1700 50  0000 L CNN
F 1 "TestPoint" H 8508 1529 50  0001 L CNN
F 2 "Wire_Pads_Local:SolderWirePad_single_25_10" H 8650 1500 50  0001 C CNN
F 3 "" H 8650 1500 50  0001 C CNN
	1    8450 1500
	1    0    0    -1  
$EndComp
$Comp
L Connector:TestPoint TP2
U 1 1 5CFD5E65
P 8550 1500
F 0 "TP2" V 8550 1700 50  0000 L CNN
F 1 "TestPoint" H 8608 1529 50  0001 L CNN
F 2 "Wire_Pads_Local:SolderWirePad_single_25_10" H 8750 1500 50  0001 C CNN
F 3 "" H 8750 1500 50  0001 C CNN
	1    8550 1500
	1    0    0    -1  
$EndComp
$Comp
L Connector:TestPoint TP3
U 1 1 5CFD5EBB
P 8650 1500
F 0 "TP3" V 8650 1700 50  0000 L CNN
F 1 "TestPoint" H 8708 1529 50  0001 L CNN
F 2 "Wire_Pads_Local:SolderWirePad_single_25_10" H 8850 1500 50  0001 C CNN
F 3 "" H 8850 1500 50  0001 C CNN
	1    8650 1500
	1    0    0    -1  
$EndComp
$Comp
L Connector:TestPoint TP4
U 1 1 5CFD5F13
P 8750 1500
F 0 "TP4" V 8750 1700 50  0000 L CNN
F 1 "TestPoint" H 8808 1529 50  0001 L CNN
F 2 "Wire_Pads_Local:SolderWirePad_single_25_10" H 8950 1500 50  0001 C CNN
F 3 "" H 8950 1500 50  0001 C CNN
	1    8750 1500
	1    0    0    -1  
$EndComp
$Comp
L Connector:TestPoint TP5
U 1 1 5CFD5F6D
P 8850 1500
F 0 "TP5" V 8850 1700 50  0000 L CNN
F 1 "TestPoint" H 8908 1529 50  0001 L CNN
F 2 "Wire_Pads_Local:SolderWirePad_single_25_10" H 9050 1500 50  0001 C CNN
F 3 "" H 9050 1500 50  0001 C CNN
	1    8850 1500
	1    0    0    -1  
$EndComp
$Comp
L Connector:TestPoint TP6
U 1 1 5CFD5FC9
P 8950 1500
F 0 "TP6" V 8950 1700 50  0000 L CNN
F 1 "TestPoint" H 9008 1529 50  0001 L CNN
F 2 "Wire_Pads_Local:SolderWirePad_single_25_10" H 9150 1500 50  0001 C CNN
F 3 "" H 9150 1500 50  0001 C CNN
	1    8950 1500
	1    0    0    -1  
$EndComp
Wire Wire Line
	8450 1500 8450 1700
Connection ~ 8450 1700
Wire Wire Line
	8450 1700 9100 1700
Wire Wire Line
	8550 1500 8550 1800
Connection ~ 8550 1800
Wire Wire Line
	8550 1800 9100 1800
Wire Wire Line
	8650 1500 8650 1900
Connection ~ 8650 1900
Wire Wire Line
	8650 1900 9100 1900
Wire Wire Line
	8750 1500 8750 2000
Connection ~ 8750 2000
Wire Wire Line
	8750 2000 9100 2000
Wire Wire Line
	8850 1500 8850 2100
Connection ~ 8850 2100
Wire Wire Line
	8850 2100 9100 2100
Wire Wire Line
	8950 1500 8950 2200
Connection ~ 8950 2200
Wire Wire Line
	8950 2200 9100 2200
$Comp
L Connector:TestPoint TP7
U 1 1 5D00CE9A
P 9050 1500
F 0 "TP7" V 9050 1700 50  0000 L CNN
F 1 "TestPoint" H 9108 1529 50  0001 L CNN
F 2 "Wire_Pads_Local:SolderWirePad_single_25_10" H 9250 1500 50  0001 C CNN
F 3 "" H 9250 1500 50  0001 C CNN
	1    9050 1500
	1    0    0    -1  
$EndComp
Wire Wire Line
	9050 1500 9050 2500
Wire Wire Line
	9050 2500 9100 2500
Connection ~ 9100 2500
$Comp
L Mechanical:MountingHole H1
U 1 1 5D37F24B
P 5650 7100
F 0 "H1" H 5750 7146 50  0000 L CNN
F 1 "MountingHole" H 5750 7055 50  0000 L CNN
F 2 "MountingHole:MountingHole_3.2mm_M3_Pad" H 5650 7100 50  0001 C CNN
F 3 "~" H 5650 7100 50  0001 C CNN
	1    5650 7100
	1    0    0    -1  
$EndComp
$EndSCHEMATC
