(module WP914CK (layer F.Cu) (tedit 5CC33616)
  (fp_text reference REF** (at -1.4 2.8) (layer F.SilkS)
    (effects (font (size 1 1) (thickness 0.15)))
  )
  (fp_text value WP914CK (at -3.8 -1.2) (layer F.Fab)
    (effects (font (size 1 1) (thickness 0.15)))
  )
  (fp_line (start -12.7 1.27) (end -12.7 -3.81) (layer F.SilkS) (width 0.15))
  (fp_line (start 1.3 1.27) (end 1.3 -3.81) (layer F.Fab) (width 0.15))
  (fp_line (start 1.3 -3.81) (end -12.7 -3.81) (layer F.SilkS) (width 0.15))
  (fp_line (start 1.3 1.27) (end -12.7 1.27) (layer F.Fab) (width 0.15))
  (fp_line (start 1.3 -3.81) (end -12.7 -3.81) (layer F.Fab) (width 0.15))
  (fp_line (start 1.3 1.27) (end 1.3 -3.81) (layer F.SilkS) (width 0.15))
  (fp_line (start 1.3 1.27) (end -12.7 1.27) (layer F.SilkS) (width 0.15))
  (fp_line (start -12.7 1.27) (end -12.7 -3.81) (layer F.Fab) (width 0.15))
  (pad 1 thru_hole circle (at 0 0) (size 1.8 1.8) (drill 0.9) (layers *.Cu *.Mask))
  (pad 2 thru_hole circle (at 0 -2.54) (size 1.8 1.8) (drill 0.9) (layers *.Cu *.Mask))
  (pad 3 thru_hole circle (at -2.54 0) (size 1.8 1.8) (drill 0.9) (layers *.Cu *.Mask))
  (pad 4 thru_hole circle (at -2.54 -2.54) (size 1.8 1.8) (drill 0.9) (layers *.Cu *.Mask))
  (pad 5 thru_hole circle (at -5.08 0) (size 1.8 1.8) (drill 0.9) (layers *.Cu *.Mask))
  (pad 6 thru_hole circle (at -5.08 -2.54) (size 1.8 1.8) (drill 0.9) (layers *.Cu *.Mask))
  (pad 7 thru_hole circle (at -7.62 0) (size 1.8 1.8) (drill 0.9) (layers *.Cu *.Mask))
  (pad 8 thru_hole circle (at -7.62 -2.54) (size 1.8 1.8) (drill 0.9) (layers *.Cu *.Mask))
  (model ${KIPRJMOD}/mod/Passives.pretty/mod_3D/914CK.STEP
    (offset (xyz -5.75 1.3 6))
    (scale (xyz 1 1 1))
    (rotate (xyz -90 0 90))
  )
)
